<svg xmlns="http://www.w3.org/2000/svg" width="48" height="48" viewBox="0 0 12.7 12.7">
  <path d="M6.35 1.058a5.292 5.292 0 1 0 0 10.584 5.292 5.292 0 0 0 0-10.584zm0 9.591c-2.37 0-4.3-1.928-4.3-4.299 0-.496.086-.973.241-1.416l1.682.748c-.045.225-.07.46-.07.703 0 2.112 1.577 2.707 2.57 2.707a2.58 2.58 0 0 0 1.693-.63l-.771-.936a.897.897 0 0 1-.07.072c-.3.284-.63.284-.704.284-.808 0-1.145-.851-1.15-1.533l4.635 2.063c.005 0 .01 0 .014.002a4.301 4.301 0 0 1-3.77 2.235zm4.143-3.2l-4.78-2.134c.173-.312.447-.547.858-.547a1.014 1.014 0 0 1 .736.313l.862-.887c-.579-.498-1.237-.587-1.667-.587-1.011 0-1.727.437-2.148 1.101l-1.599-.713A4.299 4.299 0 0 1 6.35 2.05a4.304 4.304 0 0 1 4.154 5.41l-.01-.011z"/>
</svg>
