<svg xmlns="http://www.w3.org/2000/svg" width="48" height="48" viewBox="0 0 12.7 12.7">
  <path d="M6.34 1.058c1.48 0 2.74.517 3.78 1.55a5.09 5.09 0 0 1 1.134 1.706c.258.64.388 1.318.388 2.036a5.4 5.4 0 0 1-.383 2.036 4.858 4.858 0 0 1-1.13 1.678c-.516.51-1.101.9-1.757 1.171a5.268 5.268 0 0 1-2.031.407c-.7 0-1.369-.134-2.008-.402a5.323 5.323 0 0 1-1.72-1.162A5.19 5.19 0 0 1 1.059 6.35c0-.7.133-1.372.4-2.017a5.314 5.314 0 0 1 1.168-1.734c1.008-1.027 2.246-1.54 3.713-1.54zm.02.955c-1.21 0-2.227.422-3.053 1.266a4.55 4.55 0 0 0-.959 1.422 4.168 4.168 0 0 0-.336 1.65c0 .566.112 1.113.336 1.639.224.526.543.995.96 1.408a4.36 4.36 0 0 0 1.407.945c.523.217 1.071.326 1.645.326.566 0 1.116-.11 1.649-.33a4.57 4.57 0 0 0 1.44-.955c.826-.806 1.238-1.817 1.238-3.034 0-.585-.107-1.14-.321-1.663A4.231 4.231 0 0 0 9.43 3.29c-.851-.85-1.875-1.276-3.071-1.276zM6.293 5.47l-.709.37a.727.727 0 0 0-.278-.332.628.628 0 0 0-.308-.094c-.472 0-.708.312-.708.935 0 .284.06.51.179.68.12.17.296.256.53.256.308 0 .525-.151.652-.454l.651.331a1.555 1.555 0 0 1-1.389.832c-.472 0-.853-.145-1.143-.435-.29-.29-.435-.693-.435-1.21 0-.503.147-.903.44-1.2.293-.295.663-.444 1.11-.444.655 0 1.125.255 1.408.765zm3.052 0l-.699.37a.727.727 0 0 0-.279-.332.643.643 0 0 0-.316-.094c-.473 0-.71.312-.71.935 0 .284.06.51.18.68.12.17.296.256.53.256.308 0 .526-.151.651-.454l.662.331c-.145.259-.34.462-.586.61a1.527 1.527 0 0 1-.803.222c-.479 0-.861-.145-1.148-.435-.287-.29-.43-.693-.43-1.21 0-.503.146-.903.44-1.2.292-.295.662-.444 1.11-.444.655 0 1.121.255 1.398.765z"/>
</svg>
