<svg xmlns="http://www.w3.org/2000/svg" width="48" height="48" viewBox="0 0 12.7 12.7">
  <path d="M6.35 1.043c-2.934 0-5.321 2.38-5.321 5.307 0 1.194.402 2.292 1.07 3.18l.221-.9a4.605 4.605 0 0 1 1.508-6.154l.11-.445h.778a4.64 4.64 0 0 1 1.634-.3c.577 0 1.126.11 1.634.3h1.431a5.246 5.246 0 0 0-3.065-.988zm4.243 2.146l-.215.878a4.605 4.605 0 0 1-1.504 6.156l-.109.446-.776-.002a4.64 4.64 0 0 1-1.639.303 4.64 4.64 0 0 1-1.662-.31l-1.437-.004a5.296 5.296 0 0 0 3.099 1c2.883 0 5.21-2.306 5.292-5.163a.343.343 0 0 0 .03-.143.343.343 0 0 0-.03-.147 5.306 5.306 0 0 0-1.049-3.015z" color="#000" font-family="sans-serif" font-weight="400" overflow="visible" style="line-height:normal;font-variant-ligatures:normal;font-variant-position:normal;font-variant-caps:normal;font-variant-numeric:normal;font-variant-alternates:normal;font-feature-settings:normal;text-indent:0;text-align:start;text-decoration-line:none;text-decoration-style:solid;text-decoration-color:#000;text-transform:none;text-orientation:mixed;shape-padding:0;isolation:auto;mix-blend-mode:normal" white-space="normal"/>
  <path d="M4.312 2.475C3.72 5.063 3.121 7.62 2.527 10.21l5.863.016c.594-2.588 1.19-5.16 1.783-7.75zm.824.686h.376l-.567 2.486h1.461l-.073.318H4.496zm2.405.054h1.216c.102 0 .18.02.237.058.056.039.077.089.064.15l-.143.644h-.421l.138-.627H7.576l-.382 1.724-.138.624h1.056l.001-.004.212-.955h-.497l.048-.216h.918L8.53 5.806a.168.168 0 0 1-.018.047.263.263 0 0 1-.112.101.558.558 0 0 1-.264.058H6.941a.418.418 0 0 1-.238-.058c-.056-.038-.077-.087-.063-.148l.527-2.383c.014-.061.056-.111.13-.15l.007-.003a.55.55 0 0 1 .237-.054zM4.62 6.694h1.543c.103 0 .185.02.243.059.058.04.08.09.066.153l-.288 1.302c-.013.062-.058.112-.134.152a.564.564 0 0 1-.268.06H4.661l-.217.978-.035.16h-.423l.032-.144zm2.132 0h.423L6.59 9.33h1.012a6.1 6.1 0 0 0 .036.228H6.117l.635-2.864zm-1.76.23L4.71 8.19h1.055l.28-1.266z"/>
</svg>
