<svg xmlns="http://www.w3.org/2000/svg" width="48" height="48" viewBox="0 0 12.7 12.7">
  <path d="M6.35 1.044c-2.934 0-5.321 2.379-5.321 5.306s2.387 5.306 5.321 5.306c2.883 0 5.21-2.306 5.292-5.163a.343.343 0 0 0 .03-.143.343.343 0 0 0-.03-.147c-.083-2.855-2.41-5.16-5.292-5.16zm0 .687a4.623 4.623 0 0 1 4.636 4.619 4.623 4.623 0 0 1-4.636 4.62 4.621 4.621 0 0 1-4.634-4.62c0-2.555 2.07-4.62 4.634-4.62z" color="#000" font-family="sans-serif" font-weight="400" overflow="visible" style="line-height:normal;font-variant-ligatures:normal;font-variant-position:normal;font-variant-caps:normal;font-variant-numeric:normal;font-variant-alternates:normal;font-feature-settings:normal;text-indent:0;text-align:start;text-decoration-line:none;text-decoration-style:solid;text-decoration-color:#000;text-transform:none;text-orientation:mixed;shape-padding:0;isolation:auto;mix-blend-mode:normal" white-space="normal"/>
  <path d="M2.497 4.313h.921v4.074h-.921zm1.378 0h.922v2.772h-.922zm1.379 0h.92v4.074h-.92zm1.378 1.356h.921v2.718h-.921zm1.378 0h.921v2.718h-.92zm0-.434v-.922h2.193v.922zm-1.378-.922h.921v.922h-.921z"/>
</svg>
